HCP Intro to R Bootcamp - Data Wrangling II and Other Analysis Skills
…
# A tibble: 0 × 33
# ℹ 33 variables: DESYNPUF_ID <chr>, dupe_count <int>, BENE_BIRTH_DT <dbl>,
#   BENE_DEATH_DT <dbl>, BENE_SEX_IDENT_CD <dbl>, BENE_RACE_CD <dbl>,
#   BENE_ESRD_IND <chr>, SP_STATE_CODE <chr>, BENE_COUNTY_CD <chr>,
#   BENE_HI_CVRAGE_TOT_MONS <dbl>, BENE_SMI_CVRAGE_TOT_MONS <dbl>,
#   BENE_HMO_CVRAGE_TOT_MONS <dbl>, PLAN_CVRG_MOS_NUM <chr>, SP_ALZHDMTA <dbl>,
#   SP_CHF <dbl>, SP_CHRNKIDN <dbl>, SP_CNCR <dbl>, SP_COPD <dbl>,
#   SP_DEPRESSN <dbl>, SP_DIABETES <dbl>, SP_ISCHMCHT <dbl>, …

We do have duplicates for the inpatient dataset.

inp_data |> janitor::get_dupes(DESYNPUF_ID, CLM_ADMSN_DT, NCH_BENE_DSCHRG_DT)

# A tibble: 38 × 82
   DESYNPUF_ID      CLM_ADMSN_DT NCH_BENE_DSCHRG_DT dupe_count  CLM_ID SEGMENT
   <chr>                   <dbl>              <dbl>      <int>   <dbl>   <dbl>
 1 094DCF21CB0EBFE7     20090124           20090228          2 1.97e14       2
 2 094DCF21CB0EBFE7     20090124           20090228          2 1.97e14       1
 3 0A4C77361EA1E338     20081120           20081130          2 1.96e14       1
 4 0A4C77361EA1E338     20081120           20081130          2 1.96e14       1
 5 11A88A493AF8EBFF     20081007           20081010          2 1.96e14       1
 6 11A88A493AF8EBFF     20081007           20081010          2 1.97e14       1
 7 33836C211EA4F936     20080422           20080527          2 1.97e14       2
 8 33836C211EA4F936     20080422           20080527          2 1.97e14       1
 9 404C2E3849FBEC8A     20090526           20090527          2 1.96e14       1
10 404C2E3849FBEC8A     20090526           20090527          2 1.97e14       1
# ℹ 28 more rows
# ℹ 76 more variables: CLM_FROM_DT <dbl>, CLM_THRU_DT <dbl>, PRVDR_NUM <chr>,
#   CLM_PMT_AMT <dbl>, NCH_PRMRY_PYR_CLM_PD_AMT <dbl>, AT_PHYSN_NPI <chr>,
#   OP_PHYSN_NPI <chr>, OT_PHYSN_NPI <chr>, ADMTNG_ICD9_DGNS_CD <chr>,
#   CLM_PASS_THRU_PER_DIEM_AMT <dbl>, NCH_BENE_IP_DDCTBL_AMT <dbl>,
#   NCH_BENE_PTA_COINSRNC_LBLTY_AM <dbl>, NCH_BENE_BLOOD_DDCTBL_LBLTY_AM <dbl>,
#   CLM_UTLZTN_DAY_CNT <dbl>, CLM_DRG_CD <chr>, ICD9_DGNS_CD_1 <chr>, …
…
Our goal is to create a table where we have each patient hospital admission, and an additional column specifying whether or not there was an unplanned readmission within 30 days.

We’ll also not count patients who were admitted to a hospital within 30 days of the end of 2008, since we don’t know whether or not they were re-admitted within the allowed timeframe.

Creating a patient-grouped table

First, we need to organize admission and discharge dates by patient.

patient_tbl <- inp_data_clean |>
  group_by(DESYNPUF_ID) |>
  arrange(CLM_ADMSN_DT)

patient_tbl

# A tibble: 66,754 × 36
# Groups:   DESYNPUF_ID [37,780]
   DESYNPUF_ID      CLM_ID SEGMENT CLM_FROM_DT CLM_THRU_DT PRVDR_NUM CLM_PMT_AMT
   <chr>             <dbl>   <dbl> <date>      <date>      <chr>           <dbl>
 1 1DBED23FBABFF6… 1.96e14       1 2007-11-27  2008-01-01  2601JS           8000
 2 35F495900193DF… 1.97e14       1 2007-11-28  2008-01-02  3301BB          57000
 3 81E7E08EDC17B3… 1.96e14       1 2007-12-04  2008-01-06  2600QH           5000
 4 804C869EDCCA70… 1.96e14       1 2007-12-05  2008-01-09  1002AV          15000
 5 95F29932C3D13B… 1.97e14       1 2007-12-06  2008-01-10  4200MU          30000
 6 99BCF42FD5B0E4… 1.96e14       1 2007-12-08  2008-01-12  3300JH           6000
 7 3AF93E2D9C4605… 1.96e14       1 2007-12-10  2008-01-14  10S0MP          11000
 8 073A3ED384BF74… 1.97e14       1 2007-12-12  2008-01-16  3302UN          57000
 9 06040CC1DB09E7… 1.97e14       1 2007-12-13  2008-01-06  3401KT          39000
10 1A0BA62856EAF7… 1.97e14       1 2007-12-13  2008-01-01  4200QS           6000
# ℹ 66,744 more rows
# ℹ 29 more variables: NCH_PRMRY_PYR_CLM_PD_AMT <dbl>, AT_PHYSN_NPI <chr>,
#   OP_PHYSN_NPI <chr>, OT_PHYSN_NPI <chr>, CLM_ADMSN_DT <date>,
#   ADMTNG_ICD9_DGNS_CD <chr>, CLM_PASS_THRU_PER_DIEM_AMT <dbl>,
#   NCH_BENE_IP_DDCTBL_AMT <dbl>, NCH_BENE_PTA_COINSRNC_LBLTY_AM <dbl>,
#   NCH_BENE_BLOOD_DDCTBL_LBLTY_AM <dbl>, CLM_UTLZTN_DAY_CNT <dbl>,
#   NCH_BENE_DSCHRG_DT <date>, CLM_DRG_CD <chr>, ICD9_DGNS_CD_1 <chr>, …
…
