HCP Intro to R Bootcamp - Data wrangling I
…
Split-apply-combine data analysis

Many data analysis tasks can be approached using the split-apply-combine paradigm: split the data into groups, apply some analysis to each group, and then combine the results. dplyr makes this very easy through the use of the group_by() function.

nhanes %>%
  group_by(birthplace)

# A tibble: 3,346 × 11
# Groups:   birthplace [7]
   sequence.id age.years sex    ethnicity                  birthplace family.PIR
         <int>     <int> <chr>  <chr>                      <chr>           <dbl>
 1       31521        13 Female Non-Hispanic White         Born in 5…       5   
 2       31981        15 Female Non-Hispanic Black         Born in 5…       0.67
 3       32326        16 Male   Non-Hispanic Black         Born in 5…       1.24
 4       32369        15 Male   Other Race - Including Mu… Born in 5…       0.93
 5       32537        13 Female Mexican American           Born in 5…       4.13
 6       32604        15 Female Non-Hispanic White         Born in 5…       5   
 7       31129        15 Male   Non-Hispanic Black         Born in 5…       2.71
 8       31148        16 Female Non-Hispanic White         Born in 5…       1.06
 9       31347        16 Female Non-Hispanic White         Born in 5…       3.1 
10       31458        13 Male   Mexican American           Born in 5…       3.76
# ℹ 3,336 more rows
# ℹ 5 more variables: dental.decay.present <lgl>,
#   dental.restoration.present <lgl>, plasma.glucose <int>, hba1c <dbl>,
#   bmi <dbl>

The group_by() function doesn’t perform any data processing, it groups the data into subsets: in the example above, our initial tibble of 3346 observations is split into 7 groups based on the birthplace variable.

We could similarly decide to group the tibble by sex:

nhanes %>%
  group_by(sex)

# A tibble: 3,346 × 11
# Groups:   sex [2]
   sequence.id age.years sex    ethnicity                  birthplace family.PIR
         <int>     <int> <chr>  <chr>                      <chr>           <dbl>
 1       31521        13 Female Non-Hispanic White         Born in 5…       5   
 2       31981        15 Female Non-Hispanic Black         Born in 5…       0.67
 3       32326        16 Male   Non-Hispanic Black         Born in 5…       1.24
 4       32369        15 Male   Other Race - Including Mu… Born in 5…       0.93
 5       32537        13 Female Mexican American           Born in 5…       4.13
 6       32604        15 Female Non-Hispanic White         Born in 5…       5   
 7       31129        15 Male   Non-Hispanic Black         Born in 5…       2.71
 8       31148        16 Female Non-Hispanic White         Born in 5…       1.06
 9       31347        16 Female Non-Hispanic White         Born in 5…       3.1 
10       31458        13 Male   Mexican American           Born in 5…       3.76
# ℹ 3,336 more rows
# ℹ 5 more variables: dental.decay.present <lgl>,
#   dental.restoration.present <lgl>, plasma.glucose <int>, hba1c <dbl>,
#   bmi <dbl>
…
