HCP Intro to R Bootcamp - Data wrangling I
…
Split-apply-combine data analysis

Many data analysis tasks can be approached using the split-apply-combine paradigm: split the data into groups, apply some analysis to each group, and then combine the results. dplyr makes this very easy through the use of the group_by() function.

nhanes %>%
  group_by(DMDBORN)

# A tibble: 31,034 × 28
# Groups:   DMDBORN [7]
       X  SEQN RIDAGEYR RIAGENDR RIDRETH1      DMDBORN INDFMPIR SDMVPSU SDMVSTRA
   <int> <int>    <int> <chr>    <chr>         <chr>      <dbl>   <int>    <int>
 1     1 31127        0 Male     Non-Hispanic… Born i…     0.75       2       44
 2     2 31128       11 Female   Non-Hispanic… Born i…     0.77       1       52
 3     3 31129       15 Male     Non-Hispanic… Born i…     2.71       1       51
 4     4 31130       85 Female   Non-Hispanic… Born i…     1.99       2       46
 5     5 31131       44 Female   Non-Hispanic… Born i…     4.65       1       48
 6     6 31132       70 Male     Non-Hispanic… Born i…     5          2       52
 7     7 31133       16 Female   Non-Hispanic… Born i…     5          1       51
 8     8 31134       73 Male     Non-Hispanic… Born i…    NA          2       48
 9     9 31135        0 Male     Other Race -… Born i…     5          2       52
10    10 31136       41 Female   Non-Hispanic… Born i…     3.57       2       51
# ℹ 31,024 more rows
# ℹ 19 more variables: WTINT2YR <dbl>, WTMEC2YR <dbl>, OHXDECAY <lgl>,
#   OHXREST <lgl>, LBXGLU <int>, WTSAF2YR <dbl>, LBXGH <dbl>, BMXBMI <dbl>,
#   Begin.Year <int>, EndYear <int>, age.cat <chr>, LBXGH.cat <chr>,
#   RIDAGEYR.cat <chr>, LBXGLU.cat <chr>, BMXBMI.cat <chr>, INDFMPIR.cat <chr>,
#   DMDBORN.cat <chr>, dental.caries <lgl>, diabetes <chr>

The group_by() function doesn’t perform any data processing, it groups the data into subsets: in the example above, our initial tibble of 31034 observations is split into 7 groups based on the DMDBORN variable.

We could similarly decide to group the tibble by sex:

nhanes %>%
  group_by(RIAGENDR)

# A tibble: 31,034 × 28
# Groups:   RIAGENDR [2]
       X  SEQN RIDAGEYR RIAGENDR RIDRETH1      DMDBORN INDFMPIR SDMVPSU SDMVSTRA
   <int> <int>    <int> <chr>    <chr>         <chr>      <dbl>   <int>    <int>
 1     1 31127        0 Male     Non-Hispanic… Born i…     0.75       2       44
 2     2 31128       11 Female   Non-Hispanic… Born i…     0.77       1       52
 3     3 31129       15 Male     Non-Hispanic… Born i…     2.71       1       51
 4     4 31130       85 Female   Non-Hispanic… Born i…     1.99       2       46
 5     5 31131       44 Female   Non-Hispanic… Born i…     4.65       1       48
 6     6 31132       70 Male     Non-Hispanic… Born i…     5          2       52
 7     7 31133       16 Female   Non-Hispanic… Born i…     5          1       51
 8     8 31134       73 Male     Non-Hispanic… Born i…    NA          2       48
 9     9 31135        0 Male     Other Race -… Born i…     5          2       52
10    10 31136       41 Female   Non-Hispanic… Born i…     3.57       2       51
# ℹ 31,024 more rows
# ℹ 19 more variables: WTINT2YR <dbl>, WTMEC2YR <dbl>, OHXDECAY <lgl>,
#   OHXREST <lgl>, LBXGLU <int>, WTSAF2YR <dbl>, LBXGH <dbl>, BMXBMI <dbl>,
#   Begin.Year <int>, EndYear <int>, age.cat <chr>, LBXGH.cat <chr>,
#   RIDAGEYR.cat <chr>, LBXGLU.cat <chr>, BMXBMI.cat <chr>, INDFMPIR.cat <chr>,
#   DMDBORN.cat <chr>, dental.caries <lgl>, diabetes <chr>
…
The count() function is shorthand for something we’ve already seen: grouping by a variable, and summarising it by counting the number of observations in that group. In other words, nhanes %>% count(age.years) is equivalent to:

nhanes %>%
    group_by(RIDAGEYR) %>%
    summarise(n = n())

# A tibble: 86 × 2
   RIDAGEYR     n
      <int> <int>
 1        0  1437
 2        1   987
 3        2   990
 4        3   621
 5        4   716
 6        5   622
 7        6   610
 8        7   606
 9        8   629
10        9   593
# ℹ 76 more rows
…
